<?xml version="1.0" encoding="UTF-8"?>
<svg width="54px" height="51px" viewBox="0 0 54 51" version="1.1" xmlns="http://www.w3.org/2000/svg" xmlns:xlink="http://www.w3.org/1999/xlink">
    <!-- Generator: Sketch 51.2 (57519) - http://www.bohemiancoding.com/sketch -->
    <title>noun_confused_1429617</title>
    <desc>Created with Sketch.</desc>
    <defs></defs>
    <g id="Page-1" stroke="none" stroke-width="1" fill="none" fill-rule="evenodd">
        <g id="HOME---DESKTOP" transform="translate(-137.000000, -431.000000)" fill="#1571D4" fill-rule="nonzero">
            <g id="Group-14" transform="translate(32.000000, 412.000000)">
                <g id="Group-12">
                    <g id="noun_confused_1429617" transform="translate(105.000000, 19.000000)">
                        <path d="M2.24614865,32.5644206 L10.5094512,37.6606608 C12.8392045,39.0635966 15.8365672,38.5037276 17.5167318,36.3517904 L17.9354058,35.7948243 L17.9354058,49.6075846 C17.9351904,50.3637307 18.5318924,50.9818525 19.2795697,51 L34.7044012,51 C35.4650172,51 36.0816183,50.3765944 36.0816183,49.6075846 L36.0816183,35.8115332 L36.5002923,36.3684994 C38.1894412,38.5170879 41.192975,39.065311 43.5185907,37.6495215 L51.7433312,32.5699903 C52.8086655,31.9254493 53.5739717,30.8760246 53.8680125,29.6565253 C54.1620533,28.4370259 53.9602838,27.1492489 53.3078498,26.0813347 C51.9676333,23.9125462 49.1610285,23.2204542 46.9836689,24.5218295 L42.124847,27.5183074 L40.1416543,24.037269 C38.5470834,21.2540249 35.6105614,19.536288 32.4292386,19.5258432 L31.3274649,19.5258432 L31.3274649,19.4701466 C33.8896626,17.781106 35.2297784,14.7265706 34.7484722,11.6726206 C34.2834251,8.34160877 31.7383642,5.69861285 28.4573445,5.13940768 C26.1738813,4.69957776 23.8153739,5.31228522 22.0244765,6.81057742 C20.2335791,8.30886962 19.1969072,10.5366212 19.1969367,12.8868067 C19.2061956,15.5523809 20.5229304,18.0396358 22.7115947,19.5258432 L21.6098211,19.5258432 C18.4284983,19.536288 15.4919762,21.2540249 13.8974053,24.037269 L11.9142127,27.5183074 L7.03886416,24.5162598 C4.85573794,23.1978379 2.03013399,23.8946755 0.692647767,26.0813347 C0.0410302067,27.1474258 -0.161432967,28.4328547 0.130426931,29.6508474 C0.422286829,30.8688402 1.18418626,31.9180565 2.24614865,32.5644206 Z M3.0394257,27.5517253 C3.57770235,26.6755187 4.70673065,26.3895304 5.59003177,26.9056446 L11.649787,30.6428874 C11.9670603,30.8385193 12.3490654,30.8962146 12.7090362,30.802869 C13.0690071,30.7095233 13.3763886,30.4730599 13.5613643,30.1471876 L16.2496921,25.4296843 C17.3535547,23.5012239 19.3894965,22.3128639 21.5932945,22.3106739 L22.6950681,22.3106739 C23.9580906,22.37243 25.1004686,21.5567952 25.4653737,20.3327318 C25.8302787,19.1086684 25.3239672,17.790636 24.2375513,17.1364584 C22.2188815,15.8029534 21.4170921,13.2107313 22.3246726,10.9520332 C23.2322531,8.69333523 25.5949673,7.40087963 27.9615463,7.86854179 C30.0514412,8.25298443 31.6604076,9.95160588 31.949967,12.0792058 C32.2660487,14.0567826 31.4030135,16.0374918 29.7464197,17.1364584 C28.9595264,17.6542015 28.4832799,18.5376531 28.47938,19.4868556 C28.4705445,20.2312117 28.7568378,20.9481597 29.2743552,21.4776668 C29.7918725,22.007174 30.4975297,22.3051578 31.2338142,22.3051042 L32.3355878,22.3051042 C34.5393858,22.3072942 36.5753276,23.4956543 37.6791902,25.4241147 L40.3675179,30.1416179 C40.5524936,30.4674902 40.8598752,30.7039536 41.219846,30.7972993 C41.5798169,30.890645 41.961822,30.8329496 42.2790953,30.6373178 L48.3388505,26.9112143 C49.2217735,26.3857079 50.3580742,26.6673591 50.9004743,27.5461557 C51.1661297,27.9814098 51.2474999,28.5063897 51.1262714,29.0029404 C51.0050429,29.4994912 50.6914014,29.9258921 50.2559367,30.1861752 L42.0752672,35.2657064 C40.935783,35.9508609 39.4706025,35.6769779 38.648751,34.6251954 L35.7676128,30.9213705 C35.4056705,30.4530099 34.7895823,30.2685662 34.2337649,30.4621691 C33.6779474,30.6557719 33.3049577,31.1847322 33.3051487,31.7790984 L33.3051487,48.2151693 L20.6788223,48.2151693 L20.6788223,31.784668 C20.6790133,31.1903018 20.3060236,30.6613416 19.7502061,30.4677387 C19.1943886,30.2741359 18.5783004,30.4585795 18.2163581,30.9269402 L15.33522,34.6251954 C14.5174303,35.6749906 13.0575919,35.9511358 11.9197216,35.2712761 L3.65641896,30.1750359 C3.22433011,29.9129161 2.91410392,29.4867203 2.79505904,28.9916802 C2.67601415,28.49664 2.75807271,27.9740159 3.0228991,27.540586 L3.0394257,27.5517253 Z" id="Shape"></path>
                        <path d="M47.843449,10.7804779 C50.0144833,9.70454908 51.2641657,7.36080078 50.9527539,4.94905381 C50.6413421,2.53730683 48.837771,0.591432034 46.4653318,0.107569222 C43.8015398,-0.417215577 41.1390005,1.01824865 40.1018346,3.53834402 C39.9164664,3.99453218 39.9874402,4.51541427 40.288021,4.90477905 C40.5886018,5.29414383 41.0731242,5.49283753 41.5590733,5.42601414 C42.0450224,5.35919075 42.4585709,5.03700234 42.6439392,4.58081417 C43.172108,3.2690678 44.5596429,2.52565159 45.9382432,2.81578534 C47.0769263,3.04468221 47.9669907,3.93883312 48.1948414,5.08274425 C48.4663358,6.39234882 47.8200683,7.7203289 46.6245565,8.30943758 C44.997315,9.09935207 43.965951,10.7575399 43.9726418,12.5730854 L43.9726418,13.6210712 C43.9726418,14.3826326 44.5871877,15 45.3452685,15 C46.1033492,15 46.7178951,14.3826326 46.7178951,13.6210712 L46.7178951,12.5730854 C46.7163912,11.8071531 47.1547279,11.1090386 47.843449,10.7804779 Z" id="Shape"></path>
                        <path d="M45.5,18 C44.6715729,18 44,18.6715729 44,19.5 C44,20.3284271 44.6715729,21 45.5,21 C46.3284271,21 47,20.3284271 47,19.5 C47,18.6715729 46.3284271,18 45.5,18 Z" id="Shape"></path>
                        <path d="M11.8407302,10.7804779 C14.012511,9.70541579 15.2633578,7.36263267 14.9531079,4.95112608 C14.642858,2.53961949 12.8401654,0.593021732 10.4676181,0.107569222 C7.8028841,-0.417215577 5.13940332,1.01824865 4.10187066,3.53834402 C3.91643682,3.99453218 3.98743576,4.51541427 4.28812286,4.90477905 C4.58880996,5.29414383 5.07350369,5.49283753 5.55962462,5.42601414 C6.04574556,5.35919075 6.45944035,5.03700234 6.64487417,4.58081417 C7.17322977,3.2690678 8.56125526,2.52565159 9.94034308,2.81578534 C11.0794288,3.04468221 11.969808,3.93883312 12.1977393,5.08274425 C12.4693297,6.39234882 11.8228336,7.7203289 10.6268991,8.30943758 C8.99908215,9.09935207 7.96735345,10.7575399 7.97404663,12.5730854 L7.97404663,13.6210712 C7.97404663,14.3826326 8.58880983,15 9.34715868,15 C10.1055075,15 10.7202707,14.3826326 10.7202707,13.6210712 L10.7202707,12.5730854 C10.7164112,11.8080255 11.152973,11.1095763 11.8407302,10.7804779 Z" id="Shape"></path>
                        <path d="M9.5,18 C8.67157288,18 8,18.6715729 8,19.5 C8,20.3284271 8.67157288,21 9.5,21 C10.3284271,21 11,20.3284271 11,19.5 C11,18.6715729 10.3284271,18 9.5,18 Z" id="Shape"></path>
                    </g>
                </g>
            </g>
        </g>
    </g>
</svg>